…
    ## # A tibble: 2 x 2
    ##   month `sum(n)`
    ## * <dbl>    <dbl>
    ## 1     4       12
    ## 2     5       11

``` r
house %>%
  distinct(second = second(date)) %>%
  arrange(second)
```

    ## # A tibble: 60 x 1
    ##    second
    ##     <dbl>
    ##  1      0
    ##  2      1
    ##  3      2
    ##  4      3
    ##  5      4
    ##  6      5
    ##  7      6
    ##  8      7
    ##  9      8
    ## 10      9
    ## # … with 50 more rows

``` r
house %>%
  distinct(hour = hour(date)) %>%
  arrange(hour)
```

    ## # A tibble: 24 x 1
    ##     hour
    ##    <int>
    ##  1     0
    ##  2     1
    ##  3     2
    ##  4     3
    ##  5     4
    ##  6     5
    ##  7     6
    ##  8     7
    ##  9     8
    ## 10     9
    ## # … with 14 more rows
…
    ## [1] 406748     22

-   23 consecutive days since April to May 27.

``` r
house %>%
  distinct(d = day(date), m = month(date)) %>%
  arrange(m, d)
```

    ## # A tibble: 23 x 2
    ##        d     m
    ##    <int> <dbl>
    ##  1    18     4
    ##  2    19     4
    ##  3    20     4
    ##  4    21     4
    ##  5    22     4
    ##  6    23     4
    ##  7    24     4
    ##  8    25     4
    ##  9    26     4
    ## 10    27     4
    ## # … with 13 more rows
…
